…
Please cite as: 

 Hlavac, Marek (2022). stargazer: Well-Formatted Regression and Summary Statistics Tables.
 R package version 5.2.3. https://CRAN.R-project.org/package=stargazer 

[1] TRUE
# A tibble: 12,686 × 7
       i self_esteem head_start pre_school   sex urban  male
   <int>       <int>      <int>      <int> <int> <dbl> <dbl>
 1     1          NA         NA         NA     2     1     0
 2     2          16         NA          1     2     1     0
 3     3          20          0          0     2     1     0
 4     4          NA         NA         NA     2     1     0
 5     5          23         NA         NA     1     1     1
 6     6          27          0          0     1     1     1
 7     7          26          0          1     1     1     1
 8     8          23         NA          1     2     1     0
 9     9          26          0          0     1     1     1
10    10          19          0          0     2     1     0
# … with 12,676 more rows
…
