…
Please cite as: 

 Hlavac, Marek (2022). stargazer: Well-Formatted Regression and Summary Statistics Tables.
 R package version 5.2.3. https://CRAN.R-project.org/package=stargazer 

[1] TRUE
# A tibble: 12,686 × 18
       i self_este…¹ self_…² self_…³ head_…⁴ pre_s…⁵   sex urban married educ_…⁶
   <int>       <int>   <int>   <int>   <int>   <int> <int> <dbl>   <dbl>   <int>
 1     1          NA      NA      NA      NA      NA     2     1      NA       8
 2     2          16      23      24      NA       1     2     1       1       5
 3     3          20      18      25       0       0     2     1       1      10
 4     4          NA      23      NA      NA      NA     2     1      NA      11
 5     5          23      NA      NA      NA      NA     1     1      NA      12
 6     6          27      26      25       0       0     1     1       1      12
 7     7          26      24      20       0       1     1     1       0      12
 8     8          23      22      21      NA       1     2     1       0       9
 9     9          26      30      27       0       0     1     1       1      12
10    10          19      NA      NA       0       0     2     1      NA      12
# … with 12,676 more rows, 8 more variables: educ_father <int>, welfare <int>,
#   fam_size <int>, fam_income <int>, fam_poverty <int>, unemployed <dbl>,
#   male <dbl>, any_prek <dbl>, and abbreviated variable names
#   ¹​self_esteem1980, ²​self_esteem1987, ³​self_esteem2006, ⁴​head_start,
#   ⁵​pre_school, ⁶​educ_mother
…
